Assignment 6-1
…
Joe Biden

## search for 1000 tweets by keyword in English
jb <- rtweet::search_tweets(q = "JoeBiden", n = 1000, lang = "en", token = twitter_token)

## preview users data
users_data(jb)

## # A tibble: 937 x 20
##    user_id screen_name name  location description url   protected
##    <chr>   <chr>       <chr> <chr>    <chr>       <chr> <lgl>    
##  1 823289~ G_FUNC      "The~ "NC"     "Thoughts ~ <NA>  FALSE    
##  2 127772~ voteblue77  "vot~ "New Yo~ "when life~ http~ FALSE    
##  3 373033~ Wil_Johnso~ " C~ "Puget ~ "Christian~ http~ FALSE    
##  4 880638~ ConservJean "JKK" ""       "Mom,Wife,~ <NA>  FALSE    
##  5 103487~ 12Paws3Tai~ "12P~ ""       "#MAGA, #K~ <NA>  FALSE    
##  6 370228~ newsjunkie~ "new~ "Florid~ "It's no u~ <NA>  FALSE    
##  7 136344~ BarletaMar~ "Mar~ ""       "Singer da~ <NA>  FALSE    
##  8 157901~ RyanLEllis  "Rya~ "iPhone~ "Tax lobby~ http~ FALSE    
##  9 203303~ michael7269 "Dep~ "Aurora~ ""          <NA>  FALSE    
## 10 961668~ IvoryMaeri  "\U0~ "philly~ " philly ~ http~ FALSE    
## # ... with 927 more rows, and 13 more variables: followers_count <int>,
## #   friends_count <int>, listed_count <int>, statuses_count <int>,
## #   favourites_count <int>, account_created_at <dttm>, verified <lgl>,
## #   profile_url <chr>, profile_expanded_url <chr>, account_lang <lgl>,
## #   profile_banner_url <chr>, profile_background_url <chr>,
## #   profile_image_url <chr>
…
