Assignment 6-2
…
Kamala Harris

## search for 1000 tweets by keyword in English
kh <- rtweet::search_tweets(q = "KamalaHarris", n = 1000, lang = "en", token = twitter_token)

## preview users data
users_data(kh)

## # A tibble: 982 x 20
##    user_id screen_name name  location description url   protected
##    <chr>   <chr>       <chr> <chr>    <chr>       <chr> <lgl>    
##  1 318958~ Destiny22G~ "Gin~ "Sierra~ "I am abov~ http~ FALSE    
##  2 117330~ AResisting  "Coc~ "Montre~ "Thank you~ <NA>  FALSE    
##  3 397510~ briangran4  "Bri~ ""       ""          <NA>  FALSE    
##  4 807998~ lalapuj     "Lal~ ""       "Reagan Wa~ <NA>  FALSE    
##  5 112087~ Mercede502~ "Mer~ ""       ""          <NA>  FALSE    
##  6 112087~ Mercede502~ "Mer~ ""       ""          <NA>  FALSE    
##  7 143680~ JRBuckley   "JR ~ "Phoeni~ "US Army V~ <NA>  FALSE    
##  8 820269~ kc2494      "Kas~ ""       ""          <NA>  FALSE    
##  9 159230~ tammytabby  "Bla~ "Georgi~ "Native of~ http~ FALSE    
## 10 225226~ airnashvil~ "Air~ ""       ""          <NA>  FALSE    
## # ... with 972 more rows, and 13 more variables: followers_count <int>,
## #   friends_count <int>, listed_count <int>, statuses_count <int>,
## #   favourites_count <int>, account_created_at <dttm>, verified <lgl>,
## #   profile_url <chr>, profile_expanded_url <chr>, account_lang <lgl>,
## #   profile_banner_url <chr>, profile_background_url <chr>,
## #   profile_image_url <chr>
…
